Counter_1bit_Start1.vcd
$date
	Thu Apr 21 10:52:28 2016
$end
$version
	Icarus Verilog
$end
$timescale
	1s
$end
$scope module Counter_1bit_Start1_testbench $end
$var wire 1 ! Clock $end
$var wire 1 " Count $end
$var wire 1 # Increase $end
$var wire 1 $ Reset $end
$scope module t $end
$var reg 1 % Clock $end
$var reg 1 & Increase $end
$var reg 1 ' Reset $end
$upscope $end
$scope module dut $end
$var wire 1 ! Clock $end
$var wire 1 " Count $end
$var wire 1 # Increase $end
$var wire 1 $ Reset $end
$var reg 1 ( ns $end
$var reg 1 ) ps $end
$upscope $end
$upscope $end
$enddefinitions $end
#0
$dumpvars
x)
x(
x'
x&
1%
x$
x#
x"
1!
$end
#1
0%
0!
#2
0'
0$
1%
1!
#3
0%
0!
#4
1)
1"
1%
1!
#5
0%
0!
#6
0(
1&
1#
1'
1$
1%
1!
#7
0%
0!
#8
0)
0"
0&
0#
1%
1!
#9
0%
0!
#10
1%
1!
#11
0%
0!
#12
1(
1&
1#
1%
1!
#13
0%
0!
#14
0&
0#
1)
1"
1%
1!
#15
0%
0!
#16
1%
1!
#17
0%
0!
#18
0(
1&
1#
1%
1!
#19
0%
0!
#20
0)
0"
0&
0#
1%
1!
#21
0%
0!
#22
1%
1!
#23
0%
0!
#24
1(
1&
1#
1%
1!
#25
0%
0!
#26
0&
0#
1)
1"
1%
1!
#27
0%
0!
#28
1%
1!
#29
0%
0!
#30
0(
1&
1#
1%
1!
#31
0%
0!
#32
0)
0"
0&
0#
1%
1!
