Counter_2bit.vcd
$date
	Fri Apr 15 00:23:08 2016
$end
$version
	Icarus Verilog
$end
$timescale
	1s
$end
$scope module Counter_2bit_testbench $end
$var wire 1 ! Clock $end
$var wire 2 " Count [1:0] $end
$var wire 1 # Increase $end
$var wire 1 $ Reset $end
$scope module t $end
$var reg 1 % Clock $end
$var reg 1 & Increase $end
$var reg 1 ' Reset $end
$upscope $end
$scope module dut $end
$var wire 1 ! Clock $end
$var wire 2 ( Count [1:0] $end
$var wire 1 # Increase $end
$var wire 1 $ Reset $end
$var reg 2 ) ns [1:0] $end
$var reg 2 * ps [1:0] $end
$upscope $end
$upscope $end
$enddefinitions $end
#0
$dumpvars
b0 *
bx )
b0 (
x'
x&
1%
x$
x#
b0 "
1!
$end
#1
0%
0!
#2
1'
1$
bx *
bx "
bx (
1%
1!
#3
0%
0!
#4
b0 *
b0 "
b0 (
1%
1!
#5
0%
0!
#6
b1 )
1&
1#
0'
0$
1%
1!
#7
0%
0!
#8
b1 *
b1 "
b1 (
0&
0#
1%
1!
#9
0%
0!
#10
1%
1!
#11
0%
0!
#12
b10 )
1&
1#
1%
1!
#13
0%
0!
#14
0&
0#
b10 *
b10 "
b10 (
1%
1!
#15
0%
0!
#16
1%
1!
#17
0%
0!
#18
b11 )
1&
1#
1%
1!
#19
0%
0!
#20
b11 *
b11 "
b11 (
0&
0#
1%
1!
#21
0%
0!
#22
1%
1!
#23
0%
0!
#24
b0 )
1&
1#
1%
1!
#25
0%
0!
#26
0&
0#
b0 *
b0 "
b0 (
1%
1!
#27
0%
0!
#28
1%
1!
#29
0%
0!
#30
b1 )
1&
1#
1%
1!
#31
0%
0!
#32
b1 *
b1 "
b1 (
0&
0#
1%
1!
