OCPort.vcd
$date
	Thu Apr 21 18:40:56 2016
$end
$version
	Icarus Verilog
$end
$timescale
	1s
$end
$scope module OCPort_testbench $end
$var wire 1 ! Clock $end
$var wire 1 " OpenClose $end
$var wire 1 # Reset $end
$var wire 1 $ SwitchFlip $end
$scope module t $end
$var reg 1 % Clock $end
$var reg 1 & Reset $end
$var reg 1 ' SwitchFlip $end
$upscope $end
$scope module dut $end
$var wire 1 ! Clock $end
$var wire 1 # Reset $end
$var wire 1 $ SwitchFlip $end
$var reg 1 ( OpenClose $end
$var reg 2 ) ns [1:0] $end
$var reg 2 * ps [1:0] $end
$upscope $end
$upscope $end
$enddefinitions $end
#0
$dumpvars
bx *
bx )
x(
x'
x&
1%
x$
x#
x"
1!
$end
#1
0%
0!
#2
0&
0#
1%
1!
#3
0%
0!
#4
0(
0"
b0 )
b0 *
1%
1!
#5
0%
0!
#6
1&
1#
1%
1!
#7
0%
0!
#8
1%
1!
#9
0%
0!
#10
0'
0$
1%
1!
#11
0%
0!
#12
1%
1!
#13
0%
0!
#14
1(
1"
b1 )
1'
1$
1%
1!
#15
0%
0!
#16
0(
0"
b10 )
b1 *
1%
1!
#17
0%
0!
#18
b10 *
1%
1!
#19
0%
0!
#20
1%
1!
#21
0%
0!
#22
1(
1"
b11 )
0'
0$
1%
1!
#23
0%
0!
#24
0(
0"
b0 )
b11 *
1%
1!
#25
0%
0!
#26
b0 *
1%
1!
#27
0%
0!
#28
1%
1!
#29
0%
0!
#30
1(
1"
b1 )
1'
1$
1%
1!
#31
0%
0!
#32
0(
0"
b10 )
b1 *
1%
1!
#33
0%
0!
#34
1(
1"
b11 )
0'
0$
b10 *
1%
1!
#35
0%
0!
#36
0(
0"
b0 )
b11 *
1%
1!
#37
0%
0!
#38
b0 *
1%
1!
#39
0%
0!
#40
1(
1"
b1 )
1'
1$
1%
1!
#41
0%
0!
#42
0(
0"
b10 )
b1 *
1%
1!
#43
0%
0!
#44
b10 *
1%
1!
#45
0%
0!
#46
1%
1!
#47
0%
0!
#48
1%
1!
#49
0%
0!
#50
0&
0#
1%
1!
#51
0%
0!
#52
1(
1"
b1 )
b0 *
1%
1!
#53
0%
0!
#54
1%
1!
#55
0%
0!
#56
1%
1!
#57
0%
0!
#58
1&
1#
1%
1!
#59
0%
0!
#60
0(
0"
b10 )
b1 *
1%
1!
#61
0%
0!
#62
b10 *
1%
1!
